^D:\CODE\C++\EXAM1PRACTICAL\EXAM1PRACTICAL\EXAM1PRACTICAL\MAIN.CPP
D:\CODE\C++\EXAM1PRACTICAL\EXAM1PRACTICAL\EXAM1PRACTICAL\DEBUG\VC142.PDB
D:\CODE\C++\EXAM1PRACTICAL\EXAM1PRACTICAL\EXAM1PRACTICAL\DEBUG\VC142.IDB
D:\CODE\C++\EXAM1PRACTICAL\EXAM1PRACTICAL\EXAM1PRACTICAL\DEBUG\MAIN.OBJ
